id,name,model_id:id,group_id:id,perm_read,perm_write,perm_create,perm_unlink
access_shoe_embassy_brand,name_shoe_embassy_brand,model_shoe_embassy_brand,base.group_user,1,1,1,1
access_shoe_embassy_model,name_shoe_embassy_model,model_shoe_embassy_model,base.group_user,1,1,1,1
access_shoe_embassy_collection,name_shoe_embassy_collection,model_shoe_embassy_collection,base.group_user,1,1,1,1
access_shoe_embassy_colour,name_shoe_embassy_colour,model_shoe_embassy_colour,base.group_user,1,1,1,1
access_shoe_embassy_colour_code,name_shoe_embassy_colour_code,model_shoe_embassy_colour_code,base.group_user,1,1,1,1
access_shoe_embassy_colour_text,name_shoe_embassy_colour_text,model_shoe_embassy_colour_text,base.group_user,1,1,1,1
access_shoe_embassy_info_colour,name_shoe_embassy_info_colour,model_shoe_embassy_info_colour,base.group_user,1,1,1,1
access_shoe_embassy_info_decoration,name_shoe_embassy_info_decoration,model_shoe_embassy_info_decoration,base.group_user,1,1,1,1
access_shoe_embassy_info_description,name_shoe_embassy_info_description,model_shoe_embassy_info_description,base.group_user,1,1,1,1
access_shoe_embassy_info_heel_height,name_shoe_embassy_info_heel_height,model_shoe_embassy_info_heel_height,base.group_user,1,1,1,1
access_shoe_embassy_info_inside,name_shoe_embassy_info_inside,model_shoe_embassy_info_inside,base.group_user,1,1,1,1
access_shoe_embassy_info_insole,name_shoe_embassy_info_insole,model_shoe_embassy_info_insole,base.group_user,1,1,1,1
access_shoe_embassy_info_material_heel,name_shoe_embassy_info_material_heel,model_shoe_embassy_info_material_heel,base.group_user,1,1,1,1
access_shoe_embassy_info_platform_height,name_shoe_embassy_info_platform_height,model_shoe_embassy_info_platform_height,base.group_user,1,1,1,1
access_shoe_embassy_info_sole,name_shoe_embassy_info_sole,model_shoe_embassy_info_sole,base.group_user,1,1,1,1
access_shoe_embassy_info_sole_thickness,name_shoe_embassy_info_sole_thickness,model_shoe_embassy_info_sole_thickness,base.group_user,1,1,1,1
access_shoe_embassy_info_total_height,name_shoe_embassy_info_total_height,model_shoe_embassy_info_total_height,base.group_user,1,1,1,1
access_shoe_embassy_info_upper,name_shoe_embassy_info_upper,model_shoe_embassy_info_upper,base.group_user,1,1,1,1
access_shoe_embassy_info_weight,name_shoe_embassy_info_weight,model_shoe_embassy_info_weight,base.group_user,1,1,1,1
access_shoe_embassy_info_width,name_shoe_embassy_info_width,model_shoe_embassy_info_width,base.group_user,1,1,1,1
access_shoe_embassy_shoe_type,name_shoe_embassy_shoe_type,model_shoe_embassy_shoe_type,base.group_user,1,1,1,1
access_shoe_embassy_contact_type,name_shoe_embassy_contact_type,model_shoe_embassy_contact_type,base.group_user,1,1,1,1
access_shoe_embassy_barcode,name_shoe_embassy_barcode,model_shoe_embassy_barcode,base.group_user,1,1,1,1
access_shoe_embassy_life_cycle,name_shoe_embassy_life_cycle,model_shoe_embassy_life_cycle,base.group_user,1,1,1,1
access_shoe_embassy_performance,name_shoe_embassy_performance,model_shoe_embassy_performance,base.group_user,1,1,1,1
access_shoe_embassy_lining,name_shoe_embassy_lining,model_shoe_embassy_lining,base.group_user,1,1,1,1
access_shoe_embassy_management_category,name_shoe_embassy_management_category,model_shoe_embassy_management_category,base.group_user,1,1,1,1
access_shoe_embassy_special_category,name_shoe_embassy_special_category,model_shoe_embassy_special_category,base.group_user,1,1,1,1
access_shoe_embassy_outlet,name_shoe_embassy_outlet,model_shoe_embassy_outlet,base.group_user,1,1,1,1
access_shoe_embassy_tag,name_shoe_embassy_tag,model_shoe_embassy_tag,base.group_user,1,1,1,1
access_shoe_embassy_target,name_shoe_embassy_target,model_shoe_embassy_target,base.group_user,1,1,1,1
access_orderpoint_period,name_orderpoint_period,model_orderpoint_period,base.group_user,1,1,1,1
access_gender,name_gender,model_gender,base.group_user,1,1,1,1
access_size_correlation,name_size_correlation,model_size_correlation,website.group_website_designer,1,1,1,1
